{
  "compilerOptions": {
    "baseUrl": "./",
    "paths": {
      "common/*": ["./app/common/*"],
      "iot/*": ["./app/iot/*"],
      "marketing/*": ["./app/marketing/*"]
    }
  },
  "exclude": ["node_modules"]
}
